<?xml version="1.0" encoding="UTF-8" standalone="no"?>
<!-- Created with Inkscape (http://www.inkscape.org/) -->

<svg
   xmlns:dc="http://purl.org/dc/elements/1.1/"
   xmlns:cc="http://creativecommons.org/ns#"
   xmlns:rdf="http://www.w3.org/1999/02/22-rdf-syntax-ns#"
   xmlns:svg="http://www.w3.org/2000/svg"
   xmlns="http://www.w3.org/2000/svg"
   xmlns:sodipodi="http://sodipodi.sourceforge.net/DTD/sodipodi-0.dtd"
   xmlns:inkscape="http://www.inkscape.org/namespaces/inkscape"
   width="118.53333mm"
   height="118.53333mm"
   viewBox="0 0 420 420"
   id="svg2"
   version="1.1"
   inkscape:version="0.91 r13725"
   sodipodi:docname="iconInitial.svg"
   inkscape:export-filename="/home/liam/Documents/website/assets/initial.png"
   inkscape:export-xdpi="99.203445"
   inkscape:export-ydpi="99.203445">
  <defs
     id="defs4" />
  <sodipodi:namedview
     id="base"
     pagecolor="#ffffff"
     bordercolor="#666666"
     borderopacity="1.0"
     inkscape:pageopacity="0.0"
     inkscape:pageshadow="2"
     inkscape:zoom="0.54"
     inkscape:cx="-365.19696"
     inkscape:cy="-98.840519"
     inkscape:document-units="px"
     inkscape:current-layer="layer1"
     showgrid="false"
     inkscape:snap-midpoints="true"
     fit-margin-top="0"
     fit-margin-left="0"
     fit-margin-right="0"
     fit-margin-bottom="0"
     inkscape:window-width="1366"
     inkscape:window-height="744"
     inkscape:window-x="0"
     inkscape:window-y="24"
     inkscape:window-maximized="1" />
  <metadata
     id="metadata7">
    <rdf:RDF>
      <cc:Work
         rdf:about="">
        <dc:format>image/svg+xml</dc:format>
        <dc:type
           rdf:resource="http://purl.org/dc/dcmitype/StillImage" />
        <dc:title></dc:title>
      </cc:Work>
    </rdf:RDF>
  </metadata>
  <g
     inkscape:label="Layer 1"
     inkscape:groupmode="layer"
     id="layer1"
     transform="translate(-225.71429,-266.64792)"
     style="display:inline">
    <circle
       style="fill:#ff537a;fill-opacity:1"
       id="path3340"
       cy="476.64792"
       cx="435.71429"
       r="210" />
    <flowRoot
       xml:space="preserve"
       id="flowRoot4931"
       style="font-style:normal;font-variant:normal;font-weight:normal;font-stretch:normal;font-size:39.99953079px;line-height:125%;font-family:'EB Garamond Initials';-inkscape-font-specification:'EB Garamond Initials, Normal';text-align:start;letter-spacing:0px;word-spacing:0px;writing-mode:lr-tb;text-anchor:start;fill:#ffffff;fill-opacity:1;stroke:none;stroke-width:1px;stroke-linecap:butt;stroke-linejoin:miter;stroke-opacity:1"
       transform="matrix(7.0047702,0,0,7.8533835,-310.27933,-363.55862)"><flowRegion
         id="flowRegion4933"><rect
           id="rect4935"
           width="58.021507"
           height="112.23438"
           x="87.037041"
           y="79.259254"
           style="font-style:normal;font-variant:normal;font-weight:normal;font-stretch:normal;font-size:39.99953079px;line-height:125%;font-family:'EB Garamond Initials';-inkscape-font-specification:'EB Garamond Initials, Normal';text-align:start;writing-mode:lr-tb;text-anchor:start;fill:#ffffff" /></flowRegion><flowPara
         id="flowPara4959">L</flowPara></flowRoot>    <flowRoot
       xml:space="preserve"
       id="flowRoot4951"
       style="fill:black;stroke:none;stroke-opacity:1;stroke-width:1px;stroke-linejoin:miter;stroke-linecap:butt;fill-opacity:1;font-family:sans-serif;font-style:normal;font-weight:normal;font-size:40px;line-height:125%;letter-spacing:0px;word-spacing:0px"><flowRegion
         id="flowRegion4953"><rect
           id="rect4955"
           width="53.703705"
           height="57.407406"
           x="31.481482"
           y="258.88889" /></flowRegion><flowPara
         id="flowPara4957" /></flowRoot>  </g>
</svg>
